^F:\TAFE\ADVANCED DIPLOMA\SECOND YEAR\PERSONALDNWE\DNWENGINE\MAIN.CPP|F:\TAFE\ADVANCED DIPLOMA\SECOND YEAR\PERSONALDNWE\DNWENGINE\SIMULATION.CPP
F:\TAFE\ADVANCED DIPLOMA\SECOND YEAR\PERSONALDNWE\DNWENGINE\DEBUG\VC140.PDB
F:\TAFE\ADVANCED DIPLOMA\SECOND YEAR\PERSONALDNWE\DNWENGINE\DEBUG\VC140.IDB
F:\TAFE\ADVANCED DIPLOMA\SECOND YEAR\PERSONALDNWE\DNWENGINE\DEBUG\SIMULATION.OBJ
^F:\TAFE\ADVANCED DIPLOMA\SECOND YEAR\PERSONALDNWE\DNWENGINE\MAIN.CPP
F:\TAFE\ADVANCED DIPLOMA\SECOND YEAR\PERSONALDNWE\DNWENGINE\DEBUG\VC140.PDB
F:\TAFE\ADVANCED DIPLOMA\SECOND YEAR\PERSONALDNWE\DNWENGINE\DEBUG\VC140.IDB
F:\TAFE\ADVANCED DIPLOMA\SECOND YEAR\PERSONALDNWE\DNWENGINE\DEBUG\MAIN.OBJ
^F:\TAFE\ADVANCED DIPLOMA\SECOND YEAR\PERSONALDNWE\DNWENGINE\SIMULATION.CPP
F:\TAFE\ADVANCED DIPLOMA\SECOND YEAR\PERSONALDNWE\DNWENGINE\DEBUG\VC140.PDB
F:\TAFE\ADVANCED DIPLOMA\SECOND YEAR\PERSONALDNWE\DNWENGINE\DEBUG\VC140.IDB
F:\TAFE\ADVANCED DIPLOMA\SECOND YEAR\PERSONALDNWE\DNWENGINE\DEBUG\SIMULATION.OBJ
