^C:\USERS\S171680\DESKTOP\DNWENGINE\DEBUG\NEURALNETLIB.LIB|C:\USERS\S171680\DESKTOP\DNWENGINE\DNWENGINE\DEBUG\MAIN.OBJ|C:\USERS\S171680\DESKTOP\DNWENGINE\DNWENGINE\DEBUG\SIMULATION.OBJ|C:\USERS\S171680\DESKTOP\DNWENGINE\DNWENGINE\GA\LIB\LGAL.LIB
/OUT:"C:\USERS\S171680\DESKTOP\DNWENGINE\DEBUG\DNWENGINE.EXE" /INCREMENTAL /NOLOGO /LIBPATH:C:\USERS\S171680\DESKTOP\DNWENGINE\DNWENGINE\GA\LIB LGAL.LIB KERNEL32.LIB USER32.LIB GDI32.LIB WINSPOOL.LIB COMDLG32.LIB ADVAPI32.LIB SHELL32.LIB OLE32.LIB OLEAUT32.LIB UUID.LIB ODBC32.LIB ODBCCP32.LIB /MANIFEST /MANIFESTUAC:"level='asInvoker' uiAccess='false'" /manifest:embed /Debug /PDB:"C:\USERS\S171680\DESKTOP\DNWENGINE\DEBUG\DNWENGINE.PDB" /SUBSYSTEM:CONSOLE /TLBID:1 /DYNAMICBASE /NXCOMPAT /IMPLIB:"C:\USERS\S171680\DESKTOP\DNWENGINE\DEBUG\DNWENGINE.LIB" /MACHINE:X86 DEBUG\MAIN.OBJDEBUG\SIMULATION.OBJGA\LIB\LGAL.LIBC:\USERS\S171680\DESKTOP\DNWENGINE\DEBUG\NEURALNETLIB.LIB
^F:\TAFE\ADVANCED DIPLOMA\SECOND YEAR\PERSONALDNWE\DEBUG\NEURALNETLIB.LIB|F:\TAFE\ADVANCED DIPLOMA\SECOND YEAR\PERSONALDNWE\DNWENGINE\DEBUG\MAIN.OBJ|F:\TAFE\ADVANCED DIPLOMA\SECOND YEAR\PERSONALDNWE\DNWENGINE\DEBUG\SIMULATION.OBJ|F:\TAFE\ADVANCED DIPLOMA\SECOND YEAR\PERSONALDNWE\DNWENGINE\GA\LIB\LGAL.LIB
/OUT:"F:\TAFE\ADVANCED DIPLOMA\SECOND YEAR\PERSONALDNWE\DEBUG\DNWENGINE.EXE" /INCREMENTAL /NOLOGO /LIBPATH:"F:\TAFE\ADVANCED DIPLOMA\SECOND YEAR\PERSONALDNWE\DNWENGINE\GA\LIB" LGAL.LIB KERNEL32.LIB USER32.LIB GDI32.LIB WINSPOOL.LIB COMDLG32.LIB ADVAPI32.LIB SHELL32.LIB OLE32.LIB OLEAUT32.LIB UUID.LIB ODBC32.LIB ODBCCP32.LIB /MANIFEST /MANIFESTUAC:"level='asInvoker' uiAccess='false'" /manifest:embed /DEBUG /PDB:"F:\TAFE\ADVANCED DIPLOMA\SECOND YEAR\PERSONALDNWE\DEBUG\DNWENGINE.PDB" /SUBSYSTEM:CONSOLE /TLBID:1 /DYNAMICBASE /NXCOMPAT /IMPLIB:"F:\TAFE\ADVANCED DIPLOMA\SECOND YEAR\PERSONALDNWE\DEBUG\DNWENGINE.LIB" /MACHINE:X86 DEBUG\MAIN.OBJDEBUG\SIMULATION.OBJGA\LIB\LGAL.LIB"F:\TAFE\ADVANCED DIPLOMA\SECOND YEAR\PERSONALDNWE\DEBUG\NEURALNETLIB.LIB"
